{
    "swagger": "2.0",
    "info": {
        "description": "API Для получения данных о погоде",
        "title": "Agent App Weather API",
        "contact": {},
        "version": "1.0"
    },
    "host": "0.0.0.0:3050",
    "basePath": "/api/v1/agent-app-weather",
    "paths": {
        "/current/": {
            "get": {
                "description": "Получение данных погоды на текущий момент.",
                "consumes": [
                    "application/json"
                ],
                "produces": [
                    "application/json"
                ],
                "tags": [
                    "Weather"
                ],
                "parameters": [
                    {
                        "enum": [
                            "ru",
                            "en",
                            "kz"
                        ],
                        "type": "string",
                        "description": "Accept-Language",
                        "name": "Accept-Language",
                        "in": "header",
                        "required": true
                    },
                    {
                        "type": "string",
                        "description": "Наименование города",
                        "name": "city_name",
                        "in": "query",
                        "required": true
                    }
                ],
                "responses": {
                    "200": {
                        "description": "OK",
                        "schema": {
                            "$ref": "#/definitions/entity.CurrentWeather"
                        }
                    },
                    "400": {
                        "description": "Bad Request",
                        "schema": {}
                    },
                    "404": {
                        "description": "Not Found",
                        "schema": {}
                    },
                    "500": {
                        "description": "Internal Server Error",
                        "schema": {}
                    },
                    "default": {
                        "description": "",
                        "schema": {}
                    }
                }
            }
        },
        "/daily/": {
            "get": {
                "description": "Получение почасовых данных погоды.",
                "consumes": [
                    "application/json"
                ],
                "produces": [
                    "application/json"
                ],
                "tags": [
                    "Weather"
                ],
                "parameters": [
                    {
                        "enum": [
                            "ru",
                            "en",
                            "kz"
                        ],
                        "type": "string",
                        "description": "Accept-Language",
                        "name": "Accept-Language",
                        "in": "header",
                        "required": true
                    },
                    {
                        "type": "string",
                        "description": "Наименование города",
                        "name": "city_name",
                        "in": "query",
                        "required": true
                    }
                ],
                "responses": {
                    "200": {
                        "description": "OK",
                        "schema": {
                            "type": "array",
                            "items": {
                                "$ref": "#/definitions/entity.HourlyWeather"
                            }
                        }
                    },
                    "400": {
                        "description": "Bad Request",
                        "schema": {}
                    },
                    "404": {
                        "description": "Not Found",
                        "schema": {}
                    },
                    "500": {
                        "description": "Internal Server Error",
                        "schema": {}
                    },
                    "default": {
                        "description": "",
                        "schema": {}
                    }
                }
            }
        },
        "/hourly/": {
            "get": {
                "description": "Получение почасовых данных погоды.",
                "consumes": [
                    "application/json"
                ],
                "produces": [
                    "application/json"
                ],
                "tags": [
                    "Weather"
                ],
                "parameters": [
                    {
                        "enum": [
                            "ru",
                            "en",
                            "kz"
                        ],
                        "type": "string",
                        "description": "Accept-Language",
                        "name": "Accept-Language",
                        "in": "header",
                        "required": true
                    },
                    {
                        "type": "string",
                        "description": "Наименование города",
                        "name": "city_name",
                        "in": "query",
                        "required": true
                    }
                ],
                "responses": {
                    "200": {
                        "description": "OK",
                        "schema": {
                            "type": "array",
                            "items": {
                                "$ref": "#/definitions/entity.HourlyWeather"
                            }
                        }
                    },
                    "400": {
                        "description": "Bad Request",
                        "schema": {}
                    },
                    "404": {
                        "description": "Not Found",
                        "schema": {}
                    },
                    "500": {
                        "description": "Internal Server Error",
                        "schema": {}
                    },
                    "default": {
                        "description": "",
                        "schema": {}
                    }
                }
            }
        }
    },
    "definitions": {
        "entity.CurrentWeather": {
            "type": "object",
            "properties": {
                "clouds": {
                    "description": "Облачность, %",
                    "type": "integer"
                },
                "dew_point": {
                    "description": "Температура атмосферы, ниже которой начинают конденсироваться капли воды и может образовываться роса.",
                    "type": "number"
                },
                "dt": {
                    "description": "Текущее время, Unix, UTC",
                    "type": "integer"
                },
                "feels_like": {
                    "description": "Температура. Этот параметр температуры учитывает восприятие погоды человеком",
                    "type": "number"
                },
                "humidity": {
                    "description": "Влажность, %",
                    "type": "integer"
                },
                "pressure": {
                    "description": "Атмосферное давление на уровне моря, ГПа",
                    "type": "integer"
                },
                "sunrise": {
                    "description": "Время восхода солнца, Unix, UTC",
                    "type": "integer"
                },
                "sunset": {
                    "description": "Время захода солнца, Unix, UTC",
                    "type": "integer"
                },
                "temp": {
                    "description": "Температура. Единицы измерения зависят от запроса",
                    "type": "number"
                },
                "uvi": {
                    "description": "Текущий УФ-индекс",
                    "type": "number"
                },
                "visibility": {
                    "description": "Средняя видимость, м. Максимальное значение видимости составляет 10 км",
                    "type": "integer"
                },
                "weather": {
                    "description": "Описание погодных условий",
                    "type": "array",
                    "items": {
                        "$ref": "#/definitions/entity.WeatherDescription"
                    }
                },
                "wind_deg": {
                    "description": "Направление ветра, градусы",
                    "type": "integer"
                },
                "wind_speed": {
                    "description": "Скорость ветра. Единицы измерения зависят от запроса",
                    "type": "number"
                }
            }
        },
        "entity.HourlyWeather": {
            "type": "object",
            "properties": {
                "clouds": {
                    "description": "Облачность, %",
                    "type": "integer"
                },
                "dew_point": {
                    "description": "Температура атмосферы, ниже которой начинают конденсироваться капли воды и может образовываться роса.",
                    "type": "number"
                },
                "dt": {
                    "description": "Текущее время, Unix, UTC",
                    "type": "integer"
                },
                "feels_like": {
                    "description": "Температура. Этот параметр температуры учитывает восприятие погоды человеком",
                    "type": "number"
                },
                "humidity": {
                    "description": "Влажность, %",
                    "type": "integer"
                },
                "pop": {
                    "description": "Вероятность выпадения осадков. От 0 до 1, где 0 равно 0%, 1 равно 100%",
                    "type": "number"
                },
                "pressure": {
                    "description": "Атмосферное давление на уровне моря, ГПа",
                    "type": "integer"
                },
                "rain": {
                    "description": "Данные о дожде",
                    "allOf": [
                        {
                            "$ref": "#/definitions/entity.Rainfall"
                        }
                    ]
                },
                "snow": {
                    "description": "Данные о выпадении снега",
                    "allOf": [
                        {
                            "$ref": "#/definitions/entity.Rainfall"
                        }
                    ]
                },
                "temp": {
                    "description": "Температура. Единицы измерения зависят от запроса",
                    "type": "number"
                },
                "uvi": {
                    "description": "Текущий УФ-индекс",
                    "type": "number"
                },
                "visibility": {
                    "description": "Средняя видимость, м. Максимальное значение видимости составляет 10 км",
                    "type": "integer"
                },
                "weather": {
                    "description": "Описание погодных условий",
                    "type": "array",
                    "items": {
                        "$ref": "#/definitions/entity.WeatherDescription"
                    }
                },
                "wind_deg": {
                    "description": "Направление ветра, градусы",
                    "type": "integer"
                },
                "wind_gust": {
                    "description": "Порыв ветра. Единицы измерения зависят от запроса",
                    "type": "number"
                },
                "wind_speed": {
                    "description": "Скорость ветра. Единицы измерения зависят от запроса",
                    "type": "number"
                }
            }
        },
        "entity.Rainfall": {
            "type": "object",
            "properties": {
                "1h": {
                    "description": "Количество осадков, мм / ч.",
                    "type": "number"
                }
            }
        },
        "entity.WeatherDescription": {
            "type": "object",
            "properties": {
                "description": {
                    "description": "Описание погодных условий",
                    "type": "string"
                },
                "icon": {
                    "description": "Идентификатор значка погоды",
                    "type": "string"
                }
            }
        }
    }
}